dump.vcd
$date
Sun Jul 23 20:23:22 2023
$end
$version
Riviera-PRO Version 2022.04.117.8517
$end
$timescale
1 ns
$end

$scope module tb $end

$scope module vif $end
$var reg 1 ! clk $end
$var reg 1 " newd $end
$var reg 1 # rst $end
$var reg 12 $ din [11:0] $end
$var reg 1 % sclk $end
$var reg 1 & cs $end
$var reg 1 ' mosi $end
$upscope $end


$scope module dut $end
$var wire 1 ( clk $end
$var wire 1 ) newd $end
$var wire 1 * rst $end
$var wire 12 + din [11:0] $end
$var reg 1 , sclk $end
$var reg 1 - cs $end
$var reg 1 . mosi $end
$var reg 2 / state $end
$var integer 32 0 countc $end
$var integer 32 1 count $end
$var reg 12 2 temp [11:0] $end
$upscope $end

$upscope $end

$enddefinitions $end
$dumpvars
0!
x"
1#
b0 $
x%
1&
0'
0(
x)
1*
b0 +
x,
x-
x.
b0 /
b0 0
b0 1
bx 2
$end
#10
1!
1(
0,
0%
#20
0!
0(
#30
1!
1(
#40
0!
0(
#50
1!
1(
#60
0!
0(
#70
1!
1(
#80
0!
0(
#90
1!
1(
#100
0!
0(
#110
1!
1(
#120
0!
0(
#130
1!
1(
#140
0!
0(
#150
1!
1(
#160
0!
0(
#170
1!
1(
#180
0!
0(
#190
1!
1(
0#
0*
#200
0!
0(
#210
1!
1(
b1 0
#220
0!
0(
#230
1!
1(
b10 0
#240
0!
0(
#250
1!
1(
b11 0
#260
0!
0(
#270
1!
1(
b100 0
#280
0!
0(
#290
1!
1(
b101 0
#300
0!
0(
#310
1!
1(
b110 0
#320
0!
0(
#330
1!
1(
b111 0
#340
0!
0(
#350
1!
1(
b1000 0
#360
0!
0(
#370
1!
1(
b1001 0
#380
0!
0(
#390
1!
1(
b1010 0
#400
0!
0(
#410
1!
1(
b1011 0
#420
0!
0(
#430
1!
1(
b1100 0
#440
0!
0(
#450
1!
1(
b1101 0
#460
0!
0(
#470
1!
1(
b1110 0
#480
0!
0(
#490
1!
1(
b1111 0
#500
0!
0(
#510
1!
1(
b10000 0
#520
0!
0(
#530
1!
1(
b10001 0
#540
0!
0(
#550
1!
1(
b10010 0
#560
0!
0(
#570
1!
1(
b10011 0
#580
0!
0(
#590
1!
1(
b10100 0
#600
0!
0(
#610
1!
1(
b10101 0
#620
0!
0(
#630
1!
1(
b10110 0
#640
0!
0(
#650
1!
1(
b10111 0
#660
0!
0(
#670
1!
1(
b11000 0
#680
0!
0(
#690
1!
1(
b11001 0
#700
0!
0(
#710
1!
1(
b11010 0
#720
0!
0(
#730
1!
1(
b11011 0
#740
0!
0(
#750
1!
1(
b11100 0
#760
0!
0(
#770
1!
1(
b11101 0
#780
0!
0(
#790
1!
1(
b11110 0
#800
0!
0(
#810
1!
1(
b11111 0
#820
0!
0(
#830
1!
1(
b100000 0
#840
0!
0(
#850
1!
1(
b100001 0
#860
0!
0(
#870
1!
1(
b100010 0
#880
0!
0(
#890
1!
1(
b100011 0
#900
0!
0(
#910
1!
1(
b100100 0
#920
0!
0(
#930
1!
1(
b100101 0
#940
0!
0(
#950
1!
1(
b100110 0
#960
0!
0(
#970
1!
1(
b100111 0
#980
0!
0(
#990
1!
1(
b101000 0
#1000
0!
0(
#1010
1!
1(
b101001 0
#1020
0!
0(
#1030
1!
1(
b101010 0
#1040
0!
0(
#1050
1!
1(
b101011 0
#1060
0!
0(
#1070
1!
1(
b101100 0
#1080
0!
0(
#1090
1!
1(
b101101 0
#1100
0!
0(
#1110
1!
1(
b101110 0
#1120
0!
0(
#1130
1!
1(
b101111 0
#1140
0!
0(
#1150
1!
1(
b110000 0
#1160
0!
0(
#1170
1!
1(
b110001 0
#1180
0!
0(
#1190
1!
1(
b110010 0
#1200
0!
0(
#1210
1!
1(
b0 0
1,
1%
b0 2
1"
b110001100001 $
b110001100001 +
1)
#1220
0!
0(
#1230
1!
1(
b1 0
#1240
0!
0(
#1250
1!
1(
b10 0
#1260
0!
0(
#1270
1!
1(
b11 0
#1280
0!
0(
#1290
1!
1(
b100 0
#1300
0!
0(
#1310
1!
1(
b101 0
#1320
0!
0(
#1330
1!
1(
b110 0
#1340
0!
0(
#1350
1!
1(
b111 0
#1360
0!
0(
#1370
1!
1(
b1000 0
#1380
0!
0(
#1390
1!
1(
b1001 0
#1400
0!
0(
#1410
1!
1(
b1010 0
#1420
0!
0(
#1430
1!
1(
b1011 0
#1440
0!
0(
#1450
1!
1(
b1100 0
#1460
0!
0(
#1470
1!
1(
b1101 0
#1480
0!
0(
#1490
1!
1(
b1110 0
#1500
0!
0(
#1510
1!
1(
b1111 0
#1520
0!
0(
#1530
1!
1(
b10000 0
#1540
0!
0(
#1550
1!
1(
b10001 0
#1560
0!
0(
#1570
1!
1(
b10010 0
#1580
0!
0(
#1590
1!
1(
b10011 0
#1600
0!
0(
#1610
1!
1(
b10100 0
#1620
0!
0(
#1630
1!
1(
b10101 0
#1640
0!
0(
#1650
1!
1(
b10110 0
#1660
0!
0(
#1670
1!
1(
b10111 0
#1680
0!
0(
#1690
1!
1(
b11000 0
#1700
0!
0(
#1710
1!
1(
b11001 0
#1720
0!
0(
#1730
1!
1(
b11010 0
#1740
0!
0(
#1750
1!
1(
b11011 0
#1760
0!
0(
#1770
1!
1(
b11100 0
#1780
0!
0(
#1790
1!
1(
b11101 0
#1800
0!
0(
#1810
1!
1(
b11110 0
#1820
0!
0(
#1830
1!
1(
b11111 0
#1840
0!
0(
#1850
1!
1(
b100000 0
#1860
0!
0(
#1870
1!
1(
b100001 0
#1880
0!
0(
#1890
1!
1(
b100010 0
#1900
0!
0(
#1910
1!
1(
b100011 0
#1920
0!
0(
#1930
1!
1(
b100100 0
#1940
0!
0(
#1950
1!
1(
b100101 0
#1960
0!
0(
#1970
1!
1(
b100110 0
#1980
0!
0(
#1990
1!
1(
b100111 0
#2000
0!
0(
#2010
1!
1(
b101000 0
#2020
0!
0(
#2030
1!
1(
b101001 0
#2040
0!
0(
#2050
1!
1(
b101010 0
#2060
0!
0(
#2070
1!
1(
b101011 0
#2080
0!
0(
#2090
1!
1(
b101100 0
#2100
0!
0(
#2110
1!
1(
b101101 0
#2120
0!
0(
#2130
1!
1(
b101110 0
#2140
0!
0(
#2150
1!
1(
b101111 0
#2160
0!
0(
#2170
1!
1(
b110000 0
#2180
0!
0(
#2190
1!
1(
b110001 0
#2200
0!
0(
#2210
1!
1(
b110010 0
#2220
0!
0(
#2230
1!
1(
b0 0
0,
0%
#2240
0!
0(
#2250
1!
1(
b1 0
#2260
0!
0(
#2270
1!
1(
b10 0
#2280
0!
0(
#2290
1!
1(
b11 0
#2300
0!
0(
#2310
1!
1(
b100 0
#2320
0!
0(
#2330
1!
1(
b101 0
#2340
0!
0(
#2350
1!
1(
b110 0
#2360
0!
0(
#2370
1!
1(
b111 0
#2380
0!
0(
#2390
1!
1(
b1000 0
#2400
0!
0(
#2410
1!
1(
b1001 0
#2420
0!
0(
#2430
1!
1(
b1010 0
#2440
0!
0(
#2450
1!
1(
b1011 0
#2460
0!
0(
#2470
1!
1(
b1100 0
#2480
0!
0(
#2490
1!
1(
b1101 0
#2500
0!
0(
#2510
1!
1(
b1110 0
#2520
0!
0(
#2530
1!
1(
b1111 0
#2540
0!
0(
#2550
1!
1(
b10000 0
#2560
0!
0(
#2570
1!
1(
b10001 0
#2580
0!
0(
#2590
1!
1(
b10010 0
#2600
0!
0(
#2610
1!
1(
b10011 0
#2620
0!
0(
#2630
1!
1(
b10100 0
#2640
0!
0(
#2650
1!
1(
b10101 0
#2660
0!
0(
#2670
1!
1(
b10110 0
#2680
0!
0(
#2690
1!
1(
b10111 0
#2700
0!
0(
#2710
1!
1(
b11000 0
#2720
0!
0(
#2730
1!
1(
b11001 0
#2740
0!
0(
#2750
1!
1(
b11010 0
#2760
0!
0(
#2770
1!
1(
b11011 0
#2780
0!
0(
#2790
1!
1(
b11100 0
#2800
0!
0(
#2810
1!
1(
b11101 0
#2820
0!
0(
#2830
1!
1(
b11110 0
#2840
0!
0(
#2850
1!
1(
b11111 0
#2860
0!
0(
#2870
1!
1(
b100000 0
#2880
0!
0(
#2890
1!
1(
b100001 0
#2900
0!
0(
#2910
1!
1(
b100010 0
#2920
0!
0(
#2930
1!
1(
b100011 0
#2940
0!
0(
#2950
1!
1(
b100100 0
#2960
0!
0(
#2970
1!
1(
b100101 0
#2980
0!
0(
#2990
1!
1(
b100110 0
#3000
0!
0(
#3010
1!
1(
b100111 0
#3020
0!
0(
#3030
1!
1(
b101000 0
#3040
0!
0(
#3050
1!
1(
b101001 0
#3060
0!
0(
#3070
1!
1(
b101010 0
#3080
0!
0(
#3090
1!
1(
b101011 0
#3100
0!
0(
#3110
1!
1(
b101100 0
#3120
0!
0(
#3130
1!
1(
b101101 0
#3140
0!
0(
#3150
1!
1(
b101110 0
#3160
0!
0(
#3170
1!
1(
b101111 0
#3180
0!
0(
#3190
1!
1(
b110000 0
#3200
0!
0(
#3210
1!
1(
b110001 0
#3220
0!
0(
#3230
1!
1(
b110010 0
#3240
0!
0(
#3250
1!
1(
b0 0
1,
1%
0"
0)
b10 /
b110001100001 2
0-
0&
#3260
0!
0(
#3270
1!
1(
b1 0
#3280
0!
0(
#3290
1!
1(
b10 0
#3300
0!
0(
#3310
1!
1(
b11 0
#3320
0!
0(
#3330
1!
1(
b100 0
#3340
0!
0(
#3350
1!
1(
b101 0
#3360
0!
0(
#3370
1!
1(
b110 0
#3380
0!
0(
#3390
1!
1(
b111 0
#3400
0!
0(
#3410
1!
1(
b1000 0
#3420
0!
0(
#3430
1!
1(
b1001 0
#3440
0!
0(
#3450
1!
1(
b1010 0
#3460
0!
0(
#3470
1!
1(
b1011 0
#3480
0!
0(
#3490
1!
1(
b1100 0
#3500
0!
0(
#3510
1!
1(
b1101 0
#3520
0!
0(
#3530
1!
1(
b1110 0
#3540
0!
0(
#3550
1!
1(
b1111 0
#3560
0!
0(
#3570
1!
1(
b10000 0
#3580
0!
0(
#3590
1!
1(
b10001 0
#3600
0!
0(
#3610
1!
1(
b10010 0
#3620
0!
0(
#3630
1!
1(
b10011 0
#3640
0!
0(
#3650
1!
1(
b10100 0
#3660
0!
0(
#3670
1!
1(
b10101 0
#3680
0!
0(
#3690
1!
1(
b10110 0
#3700
0!
0(
#3710
1!
1(
b10111 0
#3720
0!
0(
#3730
1!
1(
b11000 0
#3740
0!
0(
#3750
1!
1(
b11001 0
#3760
0!
0(
#3770
1!
1(
b11010 0
#3780
0!
0(
#3790
1!
1(
b11011 0
#3800
0!
0(
#3810
1!
1(
b11100 0
#3820
0!
0(
#3830
1!
1(
b11101 0
#3840
0!
0(
#3850
1!
1(
b11110 0
#3860
0!
0(
#3870
1!
1(
b11111 0
#3880
0!
0(
#3890
1!
1(
b100000 0
#3900
0!
0(
#3910
1!
1(
b100001 0
#3920
0!
0(
#3930
1!
1(
b100010 0
#3940
0!
0(
#3950
1!
1(
b100011 0
#3960
0!
0(
#3970
1!
1(
b100100 0
#3980
0!
0(
#3990
1!
1(
b100101 0
#4000
0!
0(
#4010
1!
1(
b100110 0
#4020
0!
0(
#4030
1!
1(
b100111 0
#4040
0!
0(
#4050
1!
1(
b101000 0
#4060
0!
0(
#4070
1!
1(
b101001 0
#4080
0!
0(
#4090
1!
1(
b101010 0
#4100
0!
0(
#4110
1!
1(
b101011 0
#4120
0!
0(
#4130
1!
1(
b101100 0
#4140
0!
0(
#4150
1!
1(
b101101 0
#4160
0!
0(
#4170
1!
1(
b101110 0
#4180
0!
0(
#4190
1!
1(
b101111 0
#4200
0!
0(
#4210
1!
1(
b110000 0
#4220
0!
0(
#4230
1!
1(
b110001 0
#4240
0!
0(
#4250
1!
1(
b110010 0
#4260
0!
0(
#4270
1!
1(
b0 0
0,
0%
#4280
0!
0(
#4290
1!
1(
b1 0
#4300
0!
0(
#4310
1!
1(
b10 0
#4320
0!
0(
#4330
1!
1(
b11 0
#4340
0!
0(
#4350
1!
1(
b100 0
#4360
0!
0(
#4370
1!
1(
b101 0
#4380
0!
0(
#4390
1!
1(
b110 0
#4400
0!
0(
#4410
1!
1(
b111 0
#4420
0!
0(
#4430
1!
1(
b1000 0
#4440
0!
0(
#4450
1!
1(
b1001 0
#4460
0!
0(
#4470
1!
1(
b1010 0
#4480
0!
0(
#4490
1!
1(
b1011 0
#4500
0!
0(
#4510
1!
1(
b1100 0
#4520
0!
0(
#4530
1!
1(
b1101 0
#4540
0!
0(
#4550
1!
1(
b1110 0
#4560
0!
0(
#4570
1!
1(
b1111 0
#4580
0!
0(
#4590
1!
1(
b10000 0
#4600
0!
0(
#4610
1!
1(
b10001 0
#4620
0!
0(
#4630
1!
1(
b10010 0
#4640
0!
0(
#4650
1!
1(
b10011 0
#4660
0!
0(
#4670
1!
1(
b10100 0
#4680
0!
0(
#4690
1!
1(
b10101 0
#4700
0!
0(
#4710
1!
1(
b10110 0
#4720
0!
0(
#4730
1!
1(
b10111 0
#4740
0!
0(
#4750
1!
1(
b11000 0
#4760
0!
0(
#4770
1!
1(
b11001 0
#4780
0!
0(
#4790
1!
1(
b11010 0
#4800
0!
0(
#4810
1!
1(
b11011 0
#4820
0!
0(
#4830
1!
1(
b11100 0
#4840
0!
0(
#4850
1!
1(
b11101 0
#4860
0!
0(
#4870
1!
1(
b11110 0
#4880
0!
0(
#4890
1!
1(
b11111 0
#4900
0!
0(
#4910
1!
1(
b100000 0
#4920
0!
0(
#4930
1!
1(
b100001 0
#4940
0!
0(
#4950
1!
1(
b100010 0
#4960
0!
0(
#4970
1!
1(
b100011 0
#4980
0!
0(
#4990
1!
1(
b100100 0
#5000
0!
0(
#5010
1!
1(
b100101 0
#5020
0!
0(
#5030
1!
1(
b100110 0
#5040
0!
0(
#5050
1!
1(
b100111 0
#5060
0!
0(
#5070
1!
1(
b101000 0
#5080
0!
0(
#5090
1!
1(
b101001 0
#5100
0!
0(
#5110
1!
1(
b101010 0
#5120
0!
0(
#5130
1!
1(
b101011 0
#5140
0!
0(
#5150
1!
1(
b101100 0
#5160
0!
0(
#5170
1!
1(
b101101 0
#5180
0!
0(
#5190
1!
1(
b101110 0
#5200
0!
0(
#5210
1!
1(
b101111 0
#5220
0!
0(
#5230
1!
1(
b110000 0
#5240
0!
0(
#5250
1!
1(
b110001 0
#5260
0!
0(
#5270
1!
1(
b110010 0
#5280
0!
0(
#5290
1!
1(
b0 0
1,
1%
1.
b1 1
1'
#5300
0!
0(
#5310
1!
1(
b1 0
#5320
0!
0(
#5330
1!
1(
b10 0
#5340
0!
0(
#5350
1!
1(
b11 0
#5360
0!
0(
#5370
1!
1(
b100 0
#5380
0!
0(
#5390
1!
1(
b101 0
#5400
0!
0(
#5410
1!
1(
b110 0
#5420
0!
0(
#5430
1!
1(
b111 0
#5440
0!
0(
#5450
1!
1(
b1000 0
#5460
0!
0(
#5470
1!
1(
b1001 0
#5480
0!
0(
#5490
1!
1(
b1010 0
#5500
0!
0(
#5510
1!
1(
b1011 0
#5520
0!
0(
#5530
1!
1(
b1100 0
#5540
0!
0(
#5550
1!
1(
b1101 0
#5560
0!
0(
#5570
1!
1(
b1110 0
#5580
0!
0(
#5590
1!
1(
b1111 0
#5600
0!
0(
#5610
1!
1(
b10000 0
#5620
0!
0(
#5630
1!
1(
b10001 0
#5640
0!
0(
#5650
1!
1(
b10010 0
#5660
0!
0(
#5670
1!
1(
b10011 0
#5680
0!
0(
#5690
1!
1(
b10100 0
#5700
0!
0(
#5710
1!
1(
b10101 0
#5720
0!
0(
#5730
1!
1(
b10110 0
#5740
0!
0(
#5750
1!
1(
b10111 0
#5760
0!
0(
#5770
1!
1(
b11000 0
#5780
0!
0(
#5790
1!
1(
b11001 0
#5800
0!
0(
#5810
1!
1(
b11010 0
#5820
0!
0(
#5830
1!
1(
b11011 0
#5840
0!
0(
#5850
1!
1(
b11100 0
#5860
0!
0(
#5870
1!
1(
b11101 0
#5880
0!
0(
#5890
1!
1(
b11110 0
#5900
0!
0(
#5910
1!
1(
b11111 0
#5920
0!
0(
#5930
1!
1(
b100000 0
#5940
0!
0(
#5950
1!
1(
b100001 0
#5960
0!
0(
#5970
1!
1(
b100010 0
#5980
0!
0(
#5990
1!
1(
b100011 0
#6000
0!
0(
#6010
1!
1(
b100100 0
#6020
0!
0(
#6030
1!
1(
b100101 0
#6040
0!
0(
#6050
1!
1(
b100110 0
#6060
0!
0(
#6070
1!
1(
b100111 0
#6080
0!
0(
#6090
1!
1(
b101000 0
#6100
0!
0(
#6110
1!
1(
b101001 0
#6120
0!
0(
#6130
1!
1(
b101010 0
#6140
0!
0(
#6150
1!
1(
b101011 0
#6160
0!
0(
#6170
1!
1(
b101100 0
#6180
0!
0(
#6190
1!
1(
b101101 0
#6200
0!
0(
#6210
1!
1(
b101110 0
#6220
0!
0(
#6230
1!
1(
b101111 0
#6240
0!
0(
#6250
1!
1(
b110000 0
#6260
0!
0(
#6270
1!
1(
b110001 0
#6280
0!
0(
#6290
1!
1(
b110010 0
#6300
0!
0(
#6310
1!
1(
b0 0
0,
0%
#6320
0!
0(
#6330
1!
1(
b1 0
#6340
0!
0(
#6350
1!
1(
b10 0
#6360
0!
0(
#6370
1!
1(
b11 0
#6380
0!
0(
#6390
1!
1(
b100 0
#6400
0!
0(
#6410
1!
1(
b101 0
#6420
0!
0(
#6430
1!
1(
b110 0
#6440
0!
0(
#6450
1!
1(
b111 0
#6460
0!
0(
#6470
1!
1(
b1000 0
#6480
0!
0(
#6490
1!
1(
b1001 0
#6500
0!
0(
#6510
1!
1(
b1010 0
#6520
0!
0(
#6530
1!
1(
b1011 0
#6540
0!
0(
#6550
1!
1(
b1100 0
#6560
0!
0(
#6570
1!
1(
b1101 0
#6580
0!
0(
#6590
1!
1(
b1110 0
#6600
0!
0(
#6610
1!
1(
b1111 0
#6620
0!
0(
#6630
1!
1(
b10000 0
#6640
0!
0(
#6650
1!
1(
b10001 0
#6660
0!
0(
#6670
1!
1(
b10010 0
#6680
0!
0(
#6690
1!
1(
b10011 0
#6700
0!
0(
#6710
1!
1(
b10100 0
#6720
0!
0(
#6730
1!
1(
b10101 0
#6740
0!
0(
#6750
1!
1(
b10110 0
#6760
0!
0(
#6770
1!
1(
b10111 0
#6780
0!
0(
#6790
1!
1(
b11000 0
#6800
0!
0(
#6810
1!
1(
b11001 0
#6820
0!
0(
#6830
1!
1(
b11010 0
#6840
0!
0(
#6850
1!
1(
b11011 0
#6860
0!
0(
#6870
1!
1(
b11100 0
#6880
0!
0(
#6890
1!
1(
b11101 0
#6900
0!
0(
#6910
1!
1(
b11110 0
#6920
0!
0(
#6930
1!
1(
b11111 0
#6940
0!
0(
#6950
1!
1(
b100000 0
#6960
0!
0(
#6970
1!
1(
b100001 0
#6980
0!
0(
#6990
1!
1(
b100010 0
#7000
0!
0(
#7010
1!
1(
b100011 0
#7020
0!
0(
#7030
1!
1(
b100100 0
#7040
0!
0(
#7050
1!
1(
b100101 0
#7060
0!
0(
#7070
1!
1(
b100110 0
#7080
0!
0(
#7090
1!
1(
b100111 0
#7100
0!
0(
#7110
1!
1(
b101000 0
#7120
0!
0(
#7130
1!
1(
b101001 0
#7140
0!
0(
#7150
1!
1(
b101010 0
#7160
0!
0(
#7170
1!
1(
b101011 0
#7180
0!
0(
#7190
1!
1(
b101100 0
#7200
0!
0(
#7210
1!
1(
b101101 0
#7220
0!
0(
#7230
1!
1(
b101110 0
#7240
0!
0(
#7250
1!
1(
b101111 0
#7260
0!
0(
#7270
1!
1(
b110000 0
#7280
0!
0(
#7290
1!
1(
b110001 0
#7300
0!
0(
#7310
1!
1(
b110010 0
#7320
0!
0(
#7330
1!
1(
b0 0
1,
1%
0.
b10 1
0'
#7340
0!
0(
#7350
1!
1(
b1 0
#7360
0!
0(
#7370
1!
1(
b10 0
#7380
0!
0(
#7390
1!
1(
b11 0
#7400
0!
0(
#7410
1!
1(
b100 0
#7420
0!
0(
#7430
1!
1(
b101 0
#7440
0!
0(
#7450
1!
1(
b110 0
#7460
0!
0(
#7470
1!
1(
b111 0
#7480
0!
0(
#7490
1!
1(
b1000 0
#7500
0!
0(
#7510
1!
1(
b1001 0
#7520
0!
0(
#7530
1!
1(
b1010 0
#7540
0!
0(
#7550
1!
1(
b1011 0
#7560
0!
0(
#7570
1!
1(
b1100 0
#7580
0!
0(
#7590
1!
1(
b1101 0
#7600
0!
0(
#7610
1!
1(
b1110 0
#7620
0!
0(
#7630
1!
1(
b1111 0
#7640
0!
0(
#7650
1!
1(
b10000 0
#7660
0!
0(
#7670
1!
1(
b10001 0
#7680
0!
0(
#7690
1!
1(
b10010 0
#7700
0!
0(
#7710
1!
1(
b10011 0
#7720
0!
0(
#7730
1!
1(
b10100 0
#7740
0!
0(
#7750
1!
1(
b10101 0
#7760
0!
0(
#7770
1!
1(
b10110 0
#7780
0!
0(
#7790
1!
1(
b10111 0
#7800
0!
0(
#7810
1!
1(
b11000 0
#7820
0!
0(
#7830
1!
1(
b11001 0
#7840
0!
0(
#7850
1!
1(
b11010 0
#7860
0!
0(
#7870
1!
1(
b11011 0
#7880
0!
0(
#7890
1!
1(
b11100 0
#7900
0!
0(
#7910
1!
1(
b11101 0
#7920
0!
0(
#7930
1!
1(
b11110 0
#7940
0!
0(
#7950
1!
1(
b11111 0
#7960
0!
0(
#7970
1!
1(
b100000 0
#7980
0!
0(
#7990
1!
1(
b100001 0
#8000
0!
0(
#8010
1!
1(
b100010 0
#8020
0!
0(
#8030
1!
1(
b100011 0
#8040
0!
0(
#8050
1!
1(
b100100 0
#8060
0!
0(
#8070
1!
1(
b100101 0
#8080
0!
0(
#8090
1!
1(
b100110 0
#8100
0!
0(
#8110
1!
1(
b100111 0
#8120
0!
0(
#8130
1!
1(
b101000 0
#8140
0!
0(
#8150
1!
1(
b101001 0
#8160
0!
0(
#8170
1!
1(
b101010 0
#8180
0!
0(
#8190
1!
1(
b101011 0
#8200
0!
0(
#8210
1!
1(
b101100 0
#8220
0!
0(
#8230
1!
1(
b101101 0
#8240
0!
0(
#8250
1!
1(
b101110 0
#8260
0!
0(
#8270
1!
1(
b101111 0
#8280
0!
0(
#8290
1!
1(
b110000 0
#8300
0!
0(
#8310
1!
1(
b110001 0
#8320
0!
0(
#8330
1!
1(
b110010 0
#8340
0!
0(
#8350
1!
1(
b0 0
0,
0%
#8360
0!
0(
#8370
1!
1(
b1 0
#8380
0!
0(
#8390
1!
1(
b10 0
#8400
0!
0(
#8410
1!
1(
b11 0
#8420
0!
0(
#8430
1!
1(
b100 0
#8440
0!
0(
#8450
1!
1(
b101 0
#8460
0!
0(
#8470
1!
1(
b110 0
#8480
0!
0(
#8490
1!
1(
b111 0
#8500
0!
0(
#8510
1!
1(
b1000 0
#8520
0!
0(
#8530
1!
1(
b1001 0
#8540
0!
0(
#8550
1!
1(
b1010 0
#8560
0!
0(
#8570
1!
1(
b1011 0
#8580
0!
0(
#8590
1!
1(
b1100 0
#8600
0!
0(
#8610
1!
1(
b1101 0
#8620
0!
0(
#8630
1!
1(
b1110 0
#8640
0!
0(
#8650
1!
1(
b1111 0
#8660
0!
0(
#8670
1!
1(
b10000 0
#8680
0!
0(
#8690
1!
1(
b10001 0
#8700
0!
0(
#8710
1!
1(
b10010 0
#8720
0!
0(
#8730
1!
1(
b10011 0
#8740
0!
0(
#8750
1!
1(
b10100 0
#8760
0!
0(
#8770
1!
1(
b10101 0
#8780
0!
0(
#8790
1!
1(
b10110 0
#8800
0!
0(
#8810
1!
1(
b10111 0
#8820
0!
0(
#8830
1!
1(
b11000 0
#8840
0!
0(
#8850
1!
1(
b11001 0
#8860
0!
0(
#8870
1!
1(
b11010 0
#8880
0!
0(
#8890
1!
1(
b11011 0
#8900
0!
0(
#8910
1!
1(
b11100 0
#8920
0!
0(
#8930
1!
1(
b11101 0
#8940
0!
0(
#8950
1!
1(
b11110 0
#8960
0!
0(
#8970
1!
1(
b11111 0
#8980
0!
0(
#8990
1!
1(
b100000 0
#9000
0!
0(
#9010
1!
1(
b100001 0
#9020
0!
0(
#9030
1!
1(
b100010 0
#9040
0!
0(
#9050
1!
1(
b100011 0
#9060
0!
0(
#9070
1!
1(
b100100 0
#9080
0!
0(
#9090
1!
1(
b100101 0
#9100
0!
0(
#9110
1!
1(
b100110 0
#9120
0!
0(
#9130
1!
1(
b100111 0
#9140
0!
0(
#9150
1!
1(
b101000 0
#9160
0!
0(
#9170
1!
1(
b101001 0
#9180
0!
0(
#9190
1!
1(
b101010 0
#9200
0!
0(
#9210
1!
1(
b101011 0
#9220
0!
0(
#9230
1!
1(
b101100 0
#9240
0!
0(
#9250
1!
1(
b101101 0
#9260
0!
0(
#9270
1!
1(
b101110 0
#9280
0!
0(
#9290
1!
1(
b101111 0
#9300
0!
0(
#9310
1!
1(
b110000 0
#9320
0!
0(
#9330
1!
1(
b110001 0
#9340
0!
0(
#9350
1!
1(
b110010 0
#9360
0!
0(
#9370
1!
1(
b0 0
1,
1%
b11 1
#9380
0!
0(
#9390
1!
1(
b1 0
#9400
0!
0(
#9410
1!
1(
b10 0
#9420
0!
0(
#9430
1!
1(
b11 0
#9440
0!
0(
#9450
1!
1(
b100 0
#9460
0!
0(
#9470
1!
1(
b101 0
#9480
0!
0(
#9490
1!
1(
b110 0
#9500
0!
0(
#9510
1!
1(
b111 0
#9520
0!
0(
#9530
1!
1(
b1000 0
#9540
0!
0(
#9550
1!
1(
b1001 0
#9560
0!
0(
#9570
1!
1(
b1010 0
#9580
0!
0(
#9590
1!
1(
b1011 0
#9600
0!
0(
#9610
1!
1(
b1100 0
#9620
0!
0(
#9630
1!
1(
b1101 0
#9640
0!
0(
#9650
1!
1(
b1110 0
#9660
0!
0(
#9670
1!
1(
b1111 0
#9680
0!
0(
#9690
1!
1(
b10000 0
#9700
0!
0(
#9710
1!
1(
b10001 0
#9720
0!
0(
#9730
1!
1(
b10010 0
#9740
0!
0(
#9750
1!
1(
b10011 0
#9760
0!
0(
#9770
1!
1(
b10100 0
#9780
0!
0(
#9790
1!
1(
b10101 0
#9800
0!
0(
#9810
1!
1(
b10110 0
#9820
0!
0(
#9830
1!
1(
b10111 0
#9840
0!
0(
#9850
1!
1(
b11000 0
#9860
0!
0(
#9870
1!
1(
b11001 0
#9880
0!
0(
#9890
1!
1(
b11010 0
#9900
0!
0(
#9910
1!
1(
b11011 0
#9920
0!
0(
#9930
1!
1(
b11100 0
#9940
0!
0(
#9950
1!
1(
b11101 0
#9960
0!
0(
#9970
1!
1(
b11110 0
#9980
0!
0(
#9990
1!
1(
b11111 0
#10000
0!
0(
#10010
1!
1(
b100000 0
#10020
0!
0(
#10030
1!
1(
b100001 0
#10040
0!
0(
#10050
1!
1(
b100010 0
#10060
0!
0(
#10070
1!
1(
b100011 0
#10080
0!
0(
#10090
1!
1(
b100100 0
#10100
0!
0(
#10110
1!
1(
b100101 0
#10120
0!
0(
#10130
1!
1(
b100110 0
#10140
0!
0(
#10150
1!
1(
b100111 0
#10160
0!
0(
#10170
1!
1(
b101000 0
#10180
0!
0(
#10190
1!
1(
b101001 0
#10200
0!
0(
#10210
1!
1(
b101010 0
#10220
0!
0(
#10230
1!
1(
b101011 0
#10240
0!
0(
#10250
1!
1(
b101100 0
#10260
0!
0(
#10270
1!
1(
b101101 0
#10280
0!
0(
#10290
1!
1(
b101110 0
#10300
0!
0(
#10310
1!
1(
b101111 0
#10320
0!
0(
#10330
1!
1(
b110000 0
#10340
0!
0(
#10350
1!
1(
b110001 0
#10360
0!
0(
#10370
1!
1(
b110010 0
#10380
0!
0(
#10390
1!
1(
b0 0
0,
0%
#10400
0!
0(
#10410
1!
1(
b1 0
#10420
0!
0(
#10430
1!
1(
b10 0
#10440
0!
0(
#10450
1!
1(
b11 0
#10460
0!
0(
#10470
1!
1(
b100 0
#10480
0!
0(
#10490
1!
1(
b101 0
#10500
0!
0(
#10510
1!
1(
b110 0
#10520
0!
0(
#10530
1!
1(
b111 0
#10540
0!
0(
#10550
1!
1(
b1000 0
#10560
0!
0(
#10570
1!
1(
b1001 0
#10580
0!
0(
#10590
1!
1(
b1010 0
#10600
0!
0(
#10610
1!
1(
b1011 0
#10620
0!
0(
#10630
1!
1(
b1100 0
#10640
0!
0(
#10650
1!
1(
b1101 0
#10660
0!
0(
#10670
1!
1(
b1110 0
#10680
0!
0(
#10690
1!
1(
b1111 0
#10700
0!
0(
#10710
1!
1(
b10000 0
#10720
0!
0(
#10730
1!
1(
b10001 0
#10740
0!
0(
#10750
1!
1(
b10010 0
#10760
0!
0(
#10770
1!
1(
b10011 0
#10780
0!
0(
#10790
1!
1(
b10100 0
#10800
0!
0(
#10810
1!
1(
b10101 0
#10820
0!
0(
#10830
1!
1(
b10110 0
#10840
0!
0(
#10850
1!
1(
b10111 0
#10860
0!
0(
#10870
1!
1(
b11000 0
#10880
0!
0(
#10890
1!
1(
b11001 0
#10900
0!
0(
#10910
1!
1(
b11010 0
#10920
0!
0(
#10930
1!
1(
b11011 0
#10940
0!
0(
#10950
1!
1(
b11100 0
#10960
0!
0(
#10970
1!
1(
b11101 0
#10980
0!
0(
#10990
1!
1(
b11110 0
#11000
0!
0(
#11010
1!
1(
b11111 0
#11020
0!
0(
#11030
1!
1(
b100000 0
#11040
0!
0(
#11050
1!
1(
b100001 0
#11060
0!
0(
#11070
1!
1(
b100010 0
#11080
0!
0(
#11090
1!
1(
b100011 0
#11100
0!
0(
#11110
1!
1(
b100100 0
#11120
0!
0(
#11130
1!
1(
b100101 0
#11140
0!
0(
#11150
1!
1(
b100110 0
#11160
0!
0(
#11170
1!
1(
b100111 0
#11180
0!
0(
#11190
1!
1(
b101000 0
#11200
0!
0(
#11210
1!
1(
b101001 0
#11220
0!
0(
#11230
1!
1(
b101010 0
#11240
0!
0(
#11250
1!
1(
b101011 0
